....................
----------------------------------------------------------------------
Ran 20 tests in 0.986s

OK
Name             Stmts   Miss Branch BrPart  Cover   Missing
------------------------------------------------------------
Collatz.py          32      0     10      0   100%
TestCollatz.py      80      0      0      0   100%
------------------------------------------------------------
TOTAL              112      0     10      0   100%
