1 10 20
100 200 125
201 210 89
900 1000 174
10 1 20
1 1 1
39 90 116
6724 3394 262
4426 9005 262
9026 918 262
5060 9461 262
1224 4165 238
1705 3984 238
9151 9041 185
3911 6775 262
8029 8272 190
9286 1039 262
8107 1224 262
2764 3025 217
9366 2333 262
9475 4221 262
838485 969798 507
2325 679 183
4819 8380 262
8906 6986 252
6310 5903 262
3275 4849 238
960 1812 182
4725 7190 262
6308 3612 262
6754 6235 244
6962 3360 262
123456 123456 62
5278 2985 238
4008 8376 262
6735 6895 182
2125 754 182
8909 6009 262
3142 169 217
6941 6273 244
7368 9334 260
4795 8111 262
5931 1144 238
100 8119 262
14 5196 238
3469 8740 262
7176 3492 262
6166 9950 262
3562 3955 238
8035 2502 262
4475 384 238
9911 7812 260
999123 999999 396
6869 284 262
1410 8198 262
1777 1805 162
3896 5683 236
8195 1567 262
2548 5697 238
6505 7713 257
1344 6671 262
7433 3643 262
931 2155 182
1416 9096 262
9055 9653 260
4703 2741 238
8948 616 262
3042 2009 217
249 7263 262
6132 1458 238
8551 3335 262
4942 2866 238
5847 5076 236
4376 8599 262
1292 9723 262
999999 999999 259
2755 3805 238
1242 1233 133
5819 7843 262
3726 8409 262
9109 5036 262
770 8037 262
5044 7270 262
7696 4254 262
8701 7794 252
9253 480 262
6514 5957 262
8986 8930 247
1020 5392 238
1349 4695 238
7782 7212 239
5259 3318 238
4068 4110 158
4709 1847 238
4808 1103 238
3651 6990 262
7503 2139 262
3223 5006 238
4798 5991 236
1 999999 525
3914 1214 238
8263 4688 262
9848 8114 260
8948 4118 262
12345 67890 340
4865 3298 238
1593 766 182
